<svg xmlns="http://www.w3.org/2000/svg" viewBox="0 0 38.617 27.453">
  <defs>
    <style>
      .cls-1 {
        fill: #fff;
      }
    </style>
  </defs>
  <g id="_003-mail" data-name="003-mail" transform="translate(0)">
    <g id="Group_98" data-name="Group 98">
      <g id="Group_97" data-name="Group 97" transform="translate(7.247 13.46)">
        <path id="Path_84" data-name="Path 84" class="cls-1" d="M26.32,22.749a.591.591,0,0,1-.408-.162l-6.868-6.443a.6.6,0,1,1,.818-.869l6.868,6.443a.6.6,0,0,1-.409,1.031Z" transform="translate(-2.797 -15.111)"/>
        <path id="Path_85" data-name="Path 85" class="cls-1" d="M6,22.749a.6.6,0,0,1-.409-1.031l6.87-6.443a.6.6,0,1,1,.818.869l-6.87,6.443A.591.591,0,0,1,6,22.749Z" transform="translate(-5.402 -15.111)"/>
      </g>
      <path id="Path_86" data-name="Path 86" class="cls-1" d="M35.5,31.935H3.113A3.117,3.117,0,0,1,0,28.822V7.6A3.117,3.117,0,0,1,3.113,4.482H35.5A3.117,3.117,0,0,1,38.616,7.6V28.822A3.117,3.117,0,0,1,35.5,31.935ZM3.113,5.727A1.87,1.87,0,0,0,1.245,7.6V28.822A1.87,1.87,0,0,0,3.113,30.69H35.5a1.87,1.87,0,0,0,1.868-1.868V7.6A1.87,1.87,0,0,0,35.5,5.727Z" transform="translate(0 -4.482)"/>
      <path id="Path_87" data-name="Path 87" class="cls-1" d="M19.181,20.484a3.585,3.585,0,0,1-2.29-.79L.872,6.325a.58.58,0,0,1-.061-.843.648.648,0,0,1,.881-.057L17.71,18.793a2.417,2.417,0,0,0,2.94,0l16-13.347a.644.644,0,0,1,.881.057.58.58,0,0,1-.06.843l-16,13.347A3.582,3.582,0,0,1,19.181,20.484Z" transform="translate(0.127 -4.328)"/>
    </g>
  </g>
</svg>
