<svg xmlns="http://www.w3.org/2000/svg" viewBox="0 0 51.874 62.956">
  <g id="trophy" transform="translate(0)">
    <g id="Group_17" data-name="Group 17" transform="translate(36.555 2.534)">
      <g id="Group_16" data-name="Group 16">
        <path id="Path_12" data-name="Path 12" d="M350.08,20.608a7.591,7.591,0,0,0-1.814.227l.469,1.909a5.584,5.584,0,0,1,6.963,5.45c0,8.274-9.422,14.372-13.35,15.52L342.9,45.6c4.989-1.459,14.766-8.271,14.767-17.409A7.6,7.6,0,0,0,350.08,20.608Z" transform="translate(-342.348 -20.608)"/>
      </g>
    </g>
    <g id="Group_19" data-name="Group 19" transform="translate(0 2.534)">
      <g id="Group_18" data-name="Group 18" transform="translate(0)">
        <path id="Path_13" data-name="Path 13" d="M47.034,28.195A5.581,5.581,0,0,1,54,22.746l.471-1.91a7.584,7.584,0,0,0-9.4,7.359c0,9.139,9.778,15.951,14.765,17.409l.552-1.889C56.456,42.566,47.034,36.469,47.034,28.195Z" transform="translate(-45.068 -20.609)"/>
      </g>
    </g>
    <g id="Group_21" data-name="Group 21" transform="translate(21.541 36.618)">
      <g id="Group_20" data-name="Group 20">
        <path id="Path_14" data-name="Path 14" d="M228.059,297.8h-6.823a.983.983,0,0,0-.984.984v3.733a.982.982,0,0,0,1.191.961,15.8,15.8,0,0,1,6.408,0,.983.983,0,0,0,1.191-.961v-3.733A.983.983,0,0,0,228.059,297.8Zm-.984,3.544a18.075,18.075,0,0,0-4.856,0v-1.578h4.856Z" transform="translate(-220.252 -297.8)"/>
      </g>
    </g>
    <g id="Group_23" data-name="Group 23" transform="translate(11.676 57.356)">
      <g id="Group_22" data-name="Group 22">
        <path id="Path_15" data-name="Path 15" d="M167.558,466.448H141a.983.983,0,0,0-.984.984v3.634a.983.983,0,0,0,.984.984h26.554a.983.983,0,0,0,.984-.984v-3.634A.983.983,0,0,0,167.558,466.448Zm-.984,3.634H141.987v-1.666h24.587Z" transform="translate(-140.02 -466.448)"/>
      </g>
    </g>
    <g id="Group_25" data-name="Group 25" transform="translate(13.378 43.497)">
      <g id="Group_24" data-name="Group 24" transform="translate(0)">
        <path id="Path_16" data-name="Path 16" d="M178,353.736H154.852a.983.983,0,0,0-.984.984v13.859a.983.983,0,0,0,.984.984H178a.984.984,0,0,0,.984-.984V354.72A.983.983,0,0,0,178,353.736Zm-.984,13.859H155.835V355.7h21.181Z" transform="translate(-153.868 -353.736)"/>
      </g>
    </g>
    <g id="Group_27" data-name="Group 27" transform="translate(17.313 47.43)">
      <g id="Group_26" data-name="Group 26" transform="translate(0)">
        <path id="Path_17" data-name="Path 17" d="M202.132,385.728h-15.28a.983.983,0,0,0-.984.984v5.99a.983.983,0,0,0,.984.984h15.28a.984.984,0,0,0,.984-.984v-5.99A.983.983,0,0,0,202.132,385.728Zm-.984,5.99H187.835V387.7h13.312Z" transform="translate(-185.868 -385.728)"/>
      </g>
    </g>
    <g id="Group_29" data-name="Group 29" transform="translate(8.118)">
      <g id="Group_28" data-name="Group 28">
        <path id="Path_18" data-name="Path 18" d="M146.24.495A1.648,1.648,0,0,0,145.059,0H112.747a1.668,1.668,0,0,0-1.663,1.676c.007.67.033,1.329.064,2.08.025.606.059,1.206.1,1.8a52.691,52.691,0,0,0,4.7,19.251c.38.781.79,1.546,1.218,2.272a18.87,18.87,0,0,0,6.713,7.139.982.982,0,0,0,.842.056c.228.008.486.008.775.008h7.616a.99.99,0,0,0,.826-.063,18.87,18.87,0,0,0,6.713-7.139c.425-.725.834-1.489,1.216-2.271a52.667,52.667,0,0,0,4.7-19.252c.039-.6.074-1.2.1-1.806.029-.688.056-1.376.063-2.073A1.645,1.645,0,0,0,146.24.495Zm-1.549,3.18c-.026.589-.057,1.172-.1,1.752a50.681,50.681,0,0,1-4.5,18.523c-.358.736-.743,1.455-1.142,2.135a17.683,17.683,0,0,1-5.657,6.232h-8.778a17.669,17.669,0,0,1-5.657-6.233c-.4-.682-.786-1.4-1.143-2.134a50.72,50.72,0,0,1-4.5-18.523c-.038-.579-.072-1.163-.1-1.841-.022-.538-.044-1.076-.054-1.619h31.688C144.736,2.541,144.713,3.108,144.69,3.675Z" transform="translate(-111.084 0)"/>
      </g>
    </g>
    <g id="Group_31" data-name="Group 31" transform="translate(29.066 4.259)">
      <g id="Group_30" data-name="Group 30">
        <path id="Path_19" data-name="Path 19" d="M290.133,34.64c-.016.309-.033.6-.053.888A44.951,44.951,0,0,1,286.174,51.7c-.3.606-.616,1.206-.953,1.781a14.455,14.455,0,0,1-3.776,4.444l1.141,1.6a16.408,16.408,0,0,0,4.331-5.049c.364-.621.71-1.266,1.027-1.918a47,47,0,0,0,4.1-16.907c.02-.3.037-.6.055-.916Z" transform="translate(-281.444 -34.64)"/>
      </g>
    </g>
    <g id="Group_33" data-name="Group 33" transform="translate(20.661 32.318)">
      <g id="Group_32" data-name="Group 32" transform="translate(0)">
        <path id="Path_20" data-name="Path 20" d="M221.779,262.824h-6.867c-1.656,0-1.82,3.21-1.82,3.242s.193,3.027,1.864,3.027h6.868c1.627,0,1.82-3,1.82-3.027S223.48,262.824,221.779,262.824Zm-.359,4.3h-6.1a4.294,4.294,0,0,1-.257-1.058,5.47,5.47,0,0,1,.286-1.276h6.046a5.43,5.43,0,0,1,.286,1.274A4.234,4.234,0,0,1,221.42,267.126Z" transform="translate(-213.092 -262.824)"/>
      </g>
    </g>
    <g id="Group_35" data-name="Group 35" transform="translate(17.113 40.001)">
      <g id="Group_34" data-name="Group 34" transform="translate(0)">
        <path id="Path_21" data-name="Path 21" d="M196.679,325.684a17.8,17.8,0,0,0-7.238,0c-3.259.705-5.2,2.241-5.2,4.106a.983.983,0,0,0,.984.984H200.9a.983.983,0,0,0,.984-.984C201.884,327.924,199.938,326.389,196.679,325.684Zm-9.781,3.122a7.774,7.774,0,0,1,2.958-1.2,15.793,15.793,0,0,1,6.407,0,7.773,7.773,0,0,1,2.959,1.2Z" transform="translate(-184.236 -325.312)"/>
      </g>
    </g>
  </g>
</svg>
